<?xml version="1.0" encoding="UTF-8"?>
<svg width="22px" height="22px" viewBox="0 0 22 22" version="1.1" xmlns="http://www.w3.org/2000/svg" xmlns:xlink="http://www.w3.org/1999/xlink">
    <!-- Generator: sketchtool 52.6 (67491) - http://www.bohemiancoding.com/sketch -->
    <title>D275D1F3-3771-4547-8F12-0173C3B313EF</title>
    <desc>Created with sketchtool.</desc>
    <g id="1.-Web-Views" stroke="none" stroke-width="1" fill="none" fill-rule="evenodd">
        <g id="Chat" transform="translate(-1248.000000, -939.000000)" fill="#9D9D9D" fill-rule="nonzero">
            <g id="Chat-body" transform="translate(623.000000, 117.000000)">
                <g id="Text-Placeholder" transform="translate(0.000000, 808.000000)">
                    <g id="Group-6-Copy" transform="translate(585.000000, 7.000000)">
                        <g id="ios-images" transform="translate(40.000000, 7.000000)">
                            <path d="M11.308,8.24142539 C11.2297778,8.10423163 11.0342222,8.08463252 10.9315556,8.20712695 L6.43866667,14.1946548 C6.31644444,14.3367483 6.40933333,14.5572383 6.59511111,14.5719376 L14.4711111,15.2579065 C14.6568889,15.2726058 14.784,15.0717149 14.6911111,14.9100223 L11.308,8.24142539 Z M16.4364444,11.4213808 C16.3582222,11.2841871 16.1626667,11.264588 16.06,11.3870824 L14.8475556,12.6169265 C14.7840559,12.6909219 14.7742472,12.7970919 14.8231111,12.8815145 L16.0648889,15.3069042 C16.104,15.3706013 16.1675556,15.4146993 16.2457778,15.4195991 L18.4408889,15.6106904 C18.6266667,15.6253898 18.7537778,15.4244989 18.6608889,15.2628062 L16.4364444,11.4213808 Z M16.9693333,9.47616927 C17.5168889,9.47126949 17.9911111,9.06948775 18.0937778,8.53541203 C18.2306667,7.81024499 17.6733333,7.14877506 16.9351111,7.15857461 C16.3875556,7.16347439 15.9133333,7.56525612 15.8106667,8.09933185 C15.6737778,8.82449889 16.2311111,9.48596882 16.9693333,9.47616927 Z" id="Shape"></path>
                            <path d="M20.7386667,4.81648107 L17.5217778,4.53719376 L17.2235556,1.25434298 C17.16,0.524276169 16.5146667,-0.0146993318 15.7813333,0.0538975501 L1.25644444,1.36703786 C0.528,1.43073497 -0.00977777778,2.07750557 0.0537777778,2.80757238 L1.364,17.335412 C1.42755556,18.0654788 2.07288889,18.6044543 2.80622222,18.5358575 L3.57377778,18.4672606 L3.50044444,19.2855234 C3.43688889,20.0155902 3.97466667,20.657461 4.708,20.7211581 L19.2426667,21.9902004 C19.9711111,22.0538976 20.6164444,21.514922 20.68,20.7848552 L21.9511111,6.25211581 C22.0097778,5.52694878 21.472,4.88017817 20.7386667,4.81648107 Z M2.76711111,13.2146993 C2.58622222,13.2293987 2.42488889,13.0971047 2.40533333,12.9158129 L1.52533333,3.11625835 C1.51066667,2.93496659 1.64266667,2.77327394 1.82355556,2.75857461 L15.4733333,1.52873051 C15.6542222,1.51403118 15.8155556,1.64632517 15.8351111,1.82761693 L16.0697778,4.41469933 L6.20888889,3.54743875 C5.48044444,3.48374165 4.83511111,4.02271715 4.77155556,4.75278396 L4.04311111,13.0971047 L2.76711111,13.2146993 Z M20.4746667,6.57060134 L19.6191111,16.3701559 C19.6044444,16.5514477 19.4431111,16.6886414 19.2622222,16.6739421 L18.3528889,16.5955457 L5.60755556,15.4832962 C5.42666667,15.4685969 5.28977778,15.3069042 5.30444444,15.1256125 L5.49022222,12.9746102 L6.16,5.32605791 C6.17466667,5.14476615 6.336,5.00757238 6.51688889,5.02227171 L16.1968889,5.86993318 L17.6488889,5.99732739 L20.1715556,6.21781737 C20.3573333,6.22761693 20.4942222,6.38930958 20.4746667,6.57060134 Z" id="Shape"></path>
                        </g>
                    </g>
                </g>
            </g>
        </g>
    </g>
</svg>