<svg xmlns="http://www.w3.org/2000/svg" xmlns:xlink="http://www.w3.org/1999/xlink" width="16" height="16" viewBox="0 0 16 16">
    <defs>
        <circle id="a" cx="8" cy="8" r="8"/>
        <circle id="c" cx="8" cy="8" r="8"/>
    </defs>
    <g fill="none" fill-rule="evenodd">
        <circle cx="8" cy="8" r="6.5" stroke="#50565B" stroke-width="3"/>
        <g stroke-dasharray="20,33" transform="rotate(180 8 8)">
            <mask id="b" fill="#fff">
                <use xlink:href="#a"/>
            </mask>
            <path stroke="#418CFF" stroke-width="6" d="M8 16A8 8 0 1 0 8 0a8 8 0 0 0 0 16z" mask="url(#b)"/>
        </g>
        <circle cx="8" cy="8" r="6.5" stroke="#50565B" stroke-width="3"/>
        <g stroke-dasharray="20,33" transform="rotate(180 8 8)">
            <mask id="d" fill="#fff">
                <use xlink:href="#c"/>
            </mask>
            <path stroke="#418CFF" stroke-width="6" d="M8 16A8 8 0 1 0 8 0a8 8 0 0 0 0 16z" mask="url(#d)"/>
        </g>
    </g>
</svg>
