<?xml version="1.0" encoding="UTF-8"?>
<svg width="18px" height="18px" viewBox="0 0 18 18" version="1.1" xmlns="http://www.w3.org/2000/svg" xmlns:xlink="http://www.w3.org/1999/xlink">
    <!-- Generator: sketchtool 52.6 (67491) - http://www.bohemiancoding.com/sketch -->
    <title>104766AF-EAC8-4E9C-8B03-411B05B777F3</title>
    <desc>Created with sketchtool.</desc>
    <g id="Page-1" stroke="none" stroke-width="1" fill="none" fill-rule="evenodd">
        <g id="Price-Action" transform="translate(-1298.000000, -46.000000)" fill="#ffffff" fill-rule="nonzero">
            <g id="Group-7">
                <g id="Night-Mode" transform="translate(1233.000000, 46.000000)">
                    <g id="002-moon" transform="translate(65.000000, 0.000000)">
                        <path d="M9.3696032,17.9665399 C13.1154399,17.9703947 16.4993832,15.7310341 17.9600637,12.282021 C18.0229749,12.1338405 17.989669,11.9622225 17.8758738,11.8484272 C17.7620785,11.734632 17.5906147,11.7013261 17.4424342,11.7642373 C14.8044819,12.8824527 11.781507,12.6036698 9.39257811,11.0217928 C7.00364925,9.4399157 5.56702303,6.76572782 5.56671466,3.90049342 C5.56440174,2.75436884 5.79430508,1.61950042 6.2427015,0.564658737 C6.30561268,0.416478197 6.27230676,0.245014382 6.15851151,0.131064947 C6.04471626,0.0172697368 5.87325245,-0.0160361842 5.72507195,0.046875 C1.64139596,1.77986226 -0.657483553,6.14848891 0.226665316,10.4956826 C1.11081414,14.8428762 4.93343957,17.9663857 9.3696032,17.9665399 Z M5.17490747,1.19608346 C4.18220601,4.48997739 5.07915296,8.06280837 7.50971424,10.4973787 C9.94428454,12.9279399 13.5171156,13.8247327 16.8108553,12.8321854 C15.0363898,15.9778989 11.4751234,17.6675576 7.91616983,17.0523232 C4.35737049,16.4369346 1.57000413,13.6497225 0.954769737,10.0907689 C0.339381158,6.53181537 2.02903989,2.97054892 5.17490747,1.19608346 Z" id="Shape"></path>
                    </g>
                </g>
            </g>
        </g>
    </g>
</svg>