<?xml version="1.0" encoding="utf-8"?>
<!-- Generator: Adobe Illustrator 22.1.0, SVG Export Plug-In . SVG Version: 6.00 Build 0)  -->
<svg version="1.1" id="Layer_1" xmlns="http://www.w3.org/2000/svg" xmlns:xlink="http://www.w3.org/1999/xlink" x="0px" y="0px"
	 viewBox="0 0 20 20" style="enable-background:new 0 0 20 20;" xml:space="preserve">
<style type="text/css">
	.st0{fill:#9D9D9D;}
</style>
<path class="st0" d="M17.5,12.2l-1.4-1.4L9.7,4.4c-1.2-1.2-3.1-1.2-4.2,0s-1.2,3.1,0,4.2l6.4,6.4c0.3,0.3,0.7,0.3,0.9,0
	c0.3-0.3,0.3-0.7,0-0.9L6.4,7.7C5.8,7.1,5.8,6,6.4,5.4s1.7-0.7,2.4,0l6.4,6.4l1.4,1.4c1.2,1.2,1.2,3.1,0,4.3c-1.2,1.2-3.1,1.2-4.3,0
	l-1.2-1.2L4.5,9.6L4.1,9.2c-1.7-1.7-1.6-4.4,0-6.1c1.7-1.7,4.4-1.7,6.1,0l7.1,7.1c0.2,0.2,0.4,0.2,0.6,0.2c0.2-0.1,0.4-0.2,0.5-0.5
	c0.1-0.2,0-0.5-0.2-0.6l-7.1-7.1c-2.2-2.2-5.8-2.2-8,0c-2.2,2.2-2.2,5.8,0,8l7.1,7.1l1.2,1.2c1.7,1.6,4.4,1.6,6.1-0.1
	C19.2,16.6,19.2,13.9,17.5,12.2z"/>
</svg>
