<?xml version="1.0" encoding="UTF-8"?>
<svg width="12px" height="8px" viewBox="0 0 12 8" version="1.1" xmlns="http://www.w3.org/2000/svg" xmlns:xlink="http://www.w3.org/1999/xlink">
    <!-- Generator: sketchtool 52.6 (67491) - http://www.bohemiancoding.com/sketch -->
    <title>4ACE0920-3CF0-4709-A531-56EC29ACCD13</title>
    <desc>Created with sketchtool.</desc>
    <g id="Page-1" stroke="none" stroke-width="1" fill="none" fill-rule="evenodd">
        <g id="Price-Action" transform="translate(-1029.000000, -217.000000)" fill="#000000">
            <g id="Group-10" transform="translate(50.000000, 204.000000)">
                <g id="Group-9-Copy-4" transform="translate(907.000000, 0.000000)">
                    <g id="Group-10" transform="translate(12.000000, 9.000000)">
                        <path d="M64.3307958,4.15239256 C64.5425606,4.35964645 64.5425606,4.7036879 64.3349481,4.91508686 L61.8145329,7.4394392 L71.4186851,7.4394392 C71.7134948,7.4394392 71.9543253,7.6798537 71.9543253,7.9782993 C71.9543253,8.27674489 71.7134948,8.5171594 71.4186851,8.5171594 L61.8145329,8.5171594 L64.3391003,11.0415117 C64.5467128,11.2529107 64.5425606,11.5928071 64.3349481,11.804206 C64.1231834,12.0114599 63.7868512,12.0114599 63.5750865,11.800061 L60.1536332,8.35964645 C60.1079585,8.30990552 60.0705882,8.25601951 60.0415225,8.18969826 C60.0124567,8.12337702 60,8.0529107 60,7.98244438 C60,7.84151173 60.0539792,7.70886925 60.1536332,7.6052423 L63.5750865,4.1648278 C63.7785467,3.94928375 64.1190311,3.94513868 64.3307958,4.15239256 Z" id="Path" transform="translate(65.977163, 7.979566) scale(-1, 1) translate(-65.977163, -7.979566) "></path>
                    </g>
                </g>
            </g>
        </g>
    </g>
</svg>