<?xml version="1.0" encoding="UTF-8"?>
<svg width="148px" height="36px" viewBox="0 0 148 36" version="1.1" xmlns="http://www.w3.org/2000/svg" xmlns:xlink="http://www.w3.org/1999/xlink">
    <!-- Generator: Sketch 52.6 (67491) - http://www.bohemiancoding.com/sketch -->
    <title>Group 17</title>
    <desc>Created with Sketch.</desc>
    <g id="Page-1" stroke="none" stroke-width="1" fill="none" fill-rule="evenodd">
        <g id="2.-Payment-Popup" transform="translate(-774.000000, -503.000000)">
            <g id="Group-19" transform="translate(333.000000, 225.000000)">
                <g id="Group-17" transform="translate(362.000000, 258.000000)">
                    <g id="Group-16" transform="translate(79.000000, 20.000000)">
                        <g id="visa" transform="translate(0.000000, 6.000000)">
                            <path d="M31.0400137,0.06 L27.2288219,23.8309565 L33.3205342,23.8309565 L37.1293836,0.06 C37.1293836,0.06 31.0400137,0.06 31.0400137,0.06 Z M49.4148356,9.74295652 C47.2860548,8.68930435 45.9810411,7.97817391 45.9810411,6.90052174 C46.0070685,5.92069565 47.0846027,4.91686957 49.4908356,4.91686957 C51.4699589,4.86704348 52.9246301,5.33321739 54.0281918,5.79704348 L54.5810137,6.04434783 L55.4092055,1.07086957 C54.2059589,0.604695652 52.2981507,0.0910434783 49.9416301,0.0910434783 C43.9259178,0.0910434783 39.6899589,3.22591304 39.6636712,7.70947826 C39.6139589,11.018087 42.6963836,12.854087 45.0031918,13.9554783 C47.3597123,15.0853043 48.1618767,15.8178261 48.1618767,16.8216522 C48.1358493,18.3628696 46.256411,19.074 44.5026849,19.074 C42.0727671,19.074 40.7674932,18.7077391 38.7860274,17.8489565 L37.983863,17.4826957 L37.1319863,22.6513043 C38.5629726,23.2888696 41.1946027,23.85 43.9261781,23.8786957 C50.3192877,23.8786957 54.4792466,20.7913043 54.5315616,16.0129565 C54.5523836,13.3917391 52.9269726,11.384087 49.4148356,9.74295652 Z M71.0264247,0.133565217 L66.3133836,0.133565217 C64.8610548,0.133565217 63.7574932,0.55226087 63.1286712,2.046 L54.0799863,23.8309565 L60.4730959,23.8309565 L62.2338493,19.1144348 L69.3864384,19.1144348 L70.3,23.85 L75.9385753,23.85 L71.0264247,0.133565217 Z M64.0068356,14.3546227 C64.1302055,14.3666087 66.4606986,6.65530435 66.4606986,6.65530435 L68.3164521,14.3546227 C68.3164521,14.3546227 65.2100822,14.3546087 64.0068356,14.3546227 Z M22.1386438,0.06 L16.1703014,16.2101739 L15.520137,13.0252174 C14.4165753,9.35034783 10.9567534,5.35695652 7.09558904,3.37330435 L12.5608219,23.8072174 L19.0062466,23.8072174 L28.5840685,0.0626086957 L22.1386438,0.0626086957 L22.1386438,0.06 Z" id="Shape" fill="#2394BC" fill-rule="nonzero"></path>
                            <path d="M13.5123836,3.12573913 C13.047274,1.31321739 11.5639726,0.0907826087 9.54945205,0.0646956522 L0.0973424658,0.0646956522 L0,0.504521739 C7.37330137,2.32643478 13.5620959,7.93252174 15.5698493,13.2057391 L13.5123836,3.12573913 Z" id="Path" fill="#EFC75E"></path>
                        </g>
                        <g id="mastercard" transform="translate(88.000000, 0.000000)">
                            <path d="M60,18 C60,27.8526316 52,35.9052632 42,35.9052632 C32.0952381,35.9052632 24,27.8526316 24,18 C24,8.14736842 32,0.0947368421 41.9047619,0.0947368421 C52,0.0947368421 60,8.14736842 60,18 Z" id="Path" fill="#FFB600"></path>
                            <path d="M42,0.0947368421 C51.9047619,0.0947368421 60,8.14736842 60,18 C60,27.8526316 52,35.9052632 42,35.9052632 C32.0952381,35.9052632 24,27.8526316 24,18" id="Path" fill="#F7981D"></path>
                            <path d="M42,0.0947368421 C51.9047619,0.0947368421 60,8.14736842 60,18 C60,27.8526316 52,35.9052632 42,35.9052632" id="Path" fill="#FF8500"></path>
                            <path d="M17.8095238,0.0947368421 C8,0.189473684 0,8.14736842 0,18 C0,27.8526316 8,35.9052632 18,35.9052632 C22.6666667,35.9052632 26.8571429,34.1052632 30.0952381,31.2631579 C30.7619048,30.6947368 31.3333333,30.0315789 31.9047619,29.3684211 L28.1904762,29.3684211 C27.7142857,28.8 27.2380952,28.1368421 26.8571429,27.5684211 L33.2380952,27.5684211 C33.6190476,27 34,26.3368421 34.2857143,25.6736842 L25.8095238,25.6736842 C25.5238095,25.1052632 25.2380952,24.4421053 25.047619,23.7789474 L34.952381,23.7789474 C35.5238095,21.9789474 35.9047619,20.0842105 35.9047619,18.0947368 C35.9047619,16.7684211 35.7142857,15.5368421 35.5238095,14.3052632 L24.4761905,14.3052632 C24.5714286,13.6421053 24.7619048,13.0736842 24.952381,12.4105263 L34.8571429,12.4105263 C34.6666667,11.7473684 34.3809524,11.0842105 34.0952381,10.5157895 L25.7142857,10.5157895 C26,9.85263158 26.3809524,9.28421053 26.7619048,8.62105263 L33.1428571,8.62105263 C32.7619048,7.95789474 32.2857143,7.29473684 31.7142857,6.72631579 L28.1904762,6.72631579 C28.7619048,6.06315789 29.3333333,5.49473684 30,4.92631579 C26.8571429,1.98947368 22.5714286,0.284210526 17.9047619,0.284210526 C17.9047619,0.0947368421 17.9047619,0.0947368421 17.8095238,0.0947368421 Z" id="Path" fill="#FF5050"></path>
                            <path d="M0,18 C0,27.8526316 8,35.9052632 18,35.9052632 C22.6666667,35.9052632 26.8571429,34.1052632 30.0952381,31.2631579 C30.7619048,30.6947368 31.3333333,30.0315789 31.9047619,29.3684211 L28.1904762,29.3684211 C27.7142857,28.8 27.2380952,28.1368421 26.8571429,27.5684211 L33.2380952,27.5684211 C33.6190476,27 34,26.3368421 34.2857143,25.6736842 L25.8095238,25.6736842 C25.5238095,25.1052632 25.2380952,24.4421053 25.047619,23.7789474 L34.952381,23.7789474 C35.5238095,21.9789474 35.9047619,20.0842105 35.9047619,18.0947368 C35.9047619,16.7684211 35.7142857,15.5368421 35.5238095,14.3052632 L24.4761905,14.3052632 C24.5714286,13.6421053 24.7619048,13.0736842 24.952381,12.4105263 L34.8571429,12.4105263 C34.6666667,11.7473684 34.3809524,11.0842105 34.0952381,10.5157895 L25.7142857,10.5157895 C26,9.85263158 26.3809524,9.28421053 26.7619048,8.62105263 L33.1428571,8.62105263 C32.7619048,7.95789474 32.2857143,7.29473684 31.7142857,6.72631579 L28.1904762,6.72631579 C28.7619048,6.06315789 29.3333333,5.49473684 30,4.92631579 C26.8571429,1.98947368 22.5714286,0.284210526 17.9047619,0.284210526 L17.8095238,0.284210526" id="Path" fill="#E52836"></path>
                            <path d="M18,35.9052632 C22.6666667,35.9052632 26.8571429,34.1052632 30.0952381,31.2631579 C30.7619048,30.6947368 31.3333333,30.0315789 31.9047619,29.3684211 L28.1904762,29.3684211 C27.7142857,28.8 27.2380952,28.1368421 26.8571429,27.5684211 L33.2380952,27.5684211 C33.6190476,27 34,26.3368421 34.2857143,25.6736842 L25.8095238,25.6736842 C25.5238095,25.1052632 25.2380952,24.4421053 25.047619,23.7789474 L34.952381,23.7789474 C35.5238095,21.9789474 35.9047619,20.0842105 35.9047619,18.0947368 C35.9047619,16.7684211 35.7142857,15.5368421 35.5238095,14.3052632 L24.4761905,14.3052632 C24.5714286,13.6421053 24.7619048,13.0736842 24.952381,12.4105263 L34.8571429,12.4105263 C34.6666667,11.7473684 34.3809524,11.0842105 34.0952381,10.5157895 L25.7142857,10.5157895 C26,9.85263158 26.3809524,9.28421053 26.7619048,8.62105263 L33.1428571,8.62105263 C32.7619048,7.95789474 32.2857143,7.29473684 31.7142857,6.72631579 L28.1904762,6.72631579 C28.7619048,6.06315789 29.3333333,5.49473684 30,4.92631579 C26.8571429,1.98947368 22.5714286,0.284210526 17.9047619,0.284210526 L17.8095238,0.284210526" id="Path" fill="#CB2026"></path>
                            <g id="Group" transform="translate(1.666667, 13.263158)" fill="#FFFFFF">
                                <path d="M22.7142857,9.28421053 L23,7.67368421 C22.9047619,7.67368421 22.7142857,7.76842105 22.5238095,7.76842105 C21.8571429,7.76842105 21.7619048,7.38947368 21.8571429,7.2 L22.4285714,3.88421053 L23.4761905,3.88421053 L23.7619048,2.08421053 L22.8095238,2.08421053 L23,0.947368421 L21.0952381,0.947368421 C21.0952381,0.947368421 19.952381,7.2 19.952381,7.95789474 C19.952381,9.09473684 20.6190476,9.56842105 21.4761905,9.56842105 C22.047619,9.56842105 22.5238095,9.37894737 22.7142857,9.28421053 Z" id="Path"></path>
                                <path d="M23.3809524,6.25263158 C23.3809524,8.90526316 25.1904762,9.56842105 26.7142857,9.56842105 C28.1428571,9.56842105 28.7142857,9.28421053 28.7142857,9.28421053 L29.0952381,7.48421053 C29.0952381,7.48421053 28.047619,7.95789474 27.0952381,7.95789474 C25,7.95789474 25.3809524,6.44210526 25.3809524,6.44210526 L29.2857143,6.44210526 C29.2857143,6.44210526 29.5714286,5.21052632 29.5714286,4.73684211 C29.5714286,3.50526316 28.9047619,1.98947368 26.8095238,1.98947368 C24.8095238,1.8 23.3809524,3.88421053 23.3809524,6.25263158 Z M26.7142857,3.50526316 C27.7619048,3.50526316 27.5714286,4.73684211 27.5714286,4.83157895 L25.4761905,4.83157895 C25.4761905,4.73684211 25.6666667,3.50526316 26.7142857,3.50526316 Z" id="Shape" fill-rule="nonzero"></path>
                                <path d="M38.8095238,9.28421053 L39.1904762,7.2 C39.1904762,7.2 38.2380952,7.67368421 37.5714286,7.67368421 C36.2380952,7.67368421 35.6666667,6.63157895 35.6666667,5.49473684 C35.6666667,3.22105263 36.8095238,1.98947368 38.1428571,1.98947368 C39.0952381,1.98947368 39.8571429,2.55789474 39.8571429,2.55789474 L40.1428571,0.568421053 C40.1428571,0.568421053 39,0.0947368421 37.952381,0.0947368421 C35.7619048,0.0947368421 33.5714286,1.98947368 33.5714286,5.58947368 C33.5714286,7.95789474 34.7142857,9.56842105 37,9.56842105 C37.7619048,9.56842105 38.8095238,9.28421053 38.8095238,9.28421053 Z" id="Path"></path>
                                <path d="M12.2380952,1.8 C10.9047619,1.8 9.95238095,2.17894737 9.95238095,2.17894737 L9.66666667,3.78947368 C9.66666667,3.78947368 10.5238095,3.41052632 11.7619048,3.41052632 C12.4285714,3.41052632 13,3.50526316 13,4.07368421 C13,4.45263158 12.9047619,4.54736842 12.9047619,4.54736842 C12.9047619,4.54736842 12.3333333,4.54736842 12.047619,4.54736842 C10.4285714,4.54736842 8.61904762,5.21052632 8.61904762,7.38947368 C8.61904762,9.09473684 9.76190476,9.47368421 10.4285714,9.47368421 C11.7619048,9.47368421 12.3333333,8.62105263 12.4285714,8.62105263 L12.3333333,9.37894737 L14.047619,9.37894737 L14.8095238,4.16842105 C14.8095238,1.89473684 12.9047619,1.8 12.2380952,1.8 Z M12.6190476,6.06315789 C12.6190476,6.34736842 12.4285714,7.86315789 11.2857143,7.86315789 C10.7142857,7.86315789 10.5238095,7.38947368 10.5238095,7.10526316 C10.5238095,6.63157895 10.8095238,5.96842105 12.2380952,5.96842105 C12.5238095,6.06315789 12.6190476,6.06315789 12.6190476,6.06315789 Z" id="Shape" fill-rule="nonzero"></path>
                                <path d="M16.6190476,9.47368421 C17.0952381,9.47368421 19.4761905,9.56842105 19.4761905,7.01052632 C19.4761905,4.64210526 17.1904762,5.11578947 17.1904762,4.16842105 C17.1904762,3.69473684 17.5714286,3.50526316 18.2380952,3.50526316 C18.5238095,3.50526316 19.5714286,3.6 19.5714286,3.6 L19.8571429,1.89473684 C19.8571429,1.89473684 19.1904762,1.70526316 18.047619,1.70526316 C16.6190476,1.70526316 15.1904762,2.27368421 15.1904762,4.16842105 C15.1904762,6.34736842 17.5714286,6.15789474 17.5714286,7.01052632 C17.5714286,7.57894737 16.9047619,7.67368421 16.4285714,7.67368421 C15.5714286,7.67368421 14.7142857,7.38947368 14.7142857,7.38947368 L14.4285714,9.09473684 C14.5238095,9.28421053 15,9.47368421 16.6190476,9.47368421 Z" id="Path"></path>
                                <path d="M54.6190476,0.284210526 L54.2380952,2.84210526 C54.2380952,2.84210526 53.4761905,1.89473684 52.4285714,1.89473684 C50.7142857,1.89473684 49.1904762,3.97894737 49.1904762,6.44210526 C49.1904762,7.95789474 49.952381,9.56842105 51.5714286,9.56842105 C52.7142857,9.56842105 53.3809524,8.81052632 53.3809524,8.81052632 L53.2857143,9.47368421 L55.1904762,9.47368421 L56.6190476,0.378947368 L54.6190476,0.284210526 Z M53.7619048,5.30526316 C53.7619048,6.34736842 53.2857143,7.67368421 52.2380952,7.67368421 C51.5714286,7.67368421 51.1904762,7.10526316 51.1904762,6.15789474 C51.1904762,4.64210526 51.8571429,3.69473684 52.7142857,3.69473684 C53.3809524,3.69473684 53.7619048,4.16842105 53.7619048,5.30526316 Z" id="Shape" fill-rule="nonzero"></path>
                                <polygon id="Path" points="1.85714286 9.37894737 3 2.55789474 3.19047619 9.37894737 4.52380952 9.37894737 7 2.55789474 5.95238095 9.37894737 7.95238095 9.37894737 9.47619048 0.284210526 6.33333333 0.284210526 4.42857143 5.87368421 4.33333333 0.284210526 1.57142857 0.284210526 0.0476190476 9.37894737"></polygon>
                                <path d="M31.3809524,9.37894737 C31.952381,6.25263158 32.047619,3.69473684 33.3809524,4.16842105 C33.5714286,2.93684211 33.8571429,2.46315789 34.047619,1.98947368 C34.047619,1.98947368 33.952381,1.98947368 33.6666667,1.98947368 C32.8095238,1.98947368 32.1428571,3.12631579 32.1428571,3.12631579 L32.3333333,2.08421053 L30.5238095,2.08421053 L29.2857143,9.47368421 L31.3809524,9.47368421 L31.3809524,9.37894737 Z" id="Path"></path>
                                <path d="M43.1904762,1.8 C41.8571429,1.8 40.9047619,2.17894737 40.9047619,2.17894737 L40.6190476,3.78947368 C40.6190476,3.78947368 41.4761905,3.41052632 42.7142857,3.41052632 C43.3809524,3.41052632 43.952381,3.50526316 43.952381,4.07368421 C43.952381,4.45263158 43.8571429,4.54736842 43.8571429,4.54736842 C43.8571429,4.54736842 43.2857143,4.54736842 43,4.54736842 C41.3809524,4.54736842 39.5714286,5.21052632 39.5714286,7.38947368 C39.5714286,9.09473684 40.7142857,9.47368421 41.3809524,9.47368421 C42.7142857,9.47368421 43.2857143,8.62105263 43.3809524,8.62105263 L43.2857143,9.37894737 L45,9.37894737 L45.7619048,4.16842105 C45.8571429,1.89473684 43.8571429,1.8 43.1904762,1.8 Z M43.6666667,6.06315789 C43.6666667,6.34736842 43.4761905,7.86315789 42.3333333,7.86315789 C41.7619048,7.86315789 41.5714286,7.38947368 41.5714286,7.10526316 C41.5714286,6.63157895 41.8571429,5.96842105 43.2857143,5.96842105 C43.5714286,6.06315789 43.5714286,6.06315789 43.6666667,6.06315789 Z" id="Shape" fill-rule="nonzero"></path>
                                <path d="M47.3809524,9.37894737 C47.952381,6.25263158 48.047619,3.69473684 49.3809524,4.16842105 C49.5714286,2.93684211 49.8571429,2.46315789 50.047619,1.98947368 C50.047619,1.98947368 49.952381,1.98947368 49.6666667,1.98947368 C48.8095238,1.98947368 48.1428571,3.12631579 48.1428571,3.12631579 L48.3333333,2.08421053 L46.5238095,2.08421053 L45.2857143,9.47368421 L47.3809524,9.47368421 L47.3809524,9.37894737 Z" id="Path"></path>
                            </g>
                            <g id="Group" transform="translate(1.666667, 13.263158)" fill="#DCE5E5">
                                <path d="M19.7619048,7.95789474 C19.7619048,9.09473684 20.4285714,9.56842105 21.2857143,9.56842105 C21.952381,9.56842105 22.5238095,9.37894737 22.7142857,9.28421053 L23,7.67368421 C22.9047619,7.67368421 22.7142857,7.76842105 22.5238095,7.76842105 C21.8571429,7.76842105 21.7619048,7.38947368 21.8571429,7.2 L22.4285714,3.88421053 L23.4761905,3.88421053 L23.7619048,2.08421053 L22.8095238,2.08421053 L23,0.947368421" id="Path"></path>
                                <path d="M24.3333333,6.25263158 C24.3333333,8.90526316 25.1904762,9.56842105 26.7142857,9.56842105 C28.1428571,9.56842105 28.7142857,9.28421053 28.7142857,9.28421053 L29.0952381,7.48421053 C29.0952381,7.48421053 28.047619,7.95789474 27.0952381,7.95789474 C25,7.95789474 25.3809524,6.44210526 25.3809524,6.44210526 L29.2857143,6.44210526 C29.2857143,6.44210526 29.5714286,5.21052632 29.5714286,4.73684211 C29.5714286,3.50526316 28.9047619,1.98947368 26.8095238,1.98947368 C24.8095238,1.8 24.3333333,3.88421053 24.3333333,6.25263158 Z M26.7142857,3.50526316 C27.7619048,3.50526316 27.952381,4.73684211 27.952381,4.83157895 L25.4761905,4.83157895 C25.4761905,4.73684211 25.6666667,3.50526316 26.7142857,3.50526316 Z" id="Shape" fill-rule="nonzero"></path>
                                <path d="M38.8095238,9.28421053 L39.1904762,7.2 C39.1904762,7.2 38.2380952,7.67368421 37.5714286,7.67368421 C36.2380952,7.67368421 35.6666667,6.63157895 35.6666667,5.49473684 C35.6666667,3.22105263 36.8095238,1.98947368 38.1428571,1.98947368 C39.0952381,1.98947368 39.8571429,2.55789474 39.8571429,2.55789474 L40.1428571,0.568421053 C40.1428571,0.568421053 39,0.0947368421 37.952381,0.0947368421 C35.7619048,0.0947368421 34.5238095,1.98947368 34.5238095,5.58947368 C34.5238095,7.95789474 34.7142857,9.56842105 37,9.56842105 C37.7619048,9.56842105 38.8095238,9.28421053 38.8095238,9.28421053 Z" id="Path"></path>
                                <path d="M9.66666667,3.88421053 C9.66666667,3.88421053 10.5238095,3.50526316 11.7619048,3.50526316 C12.4285714,3.50526316 13,3.6 13,4.16842105 C13,4.54736842 12.9047619,4.64210526 12.9047619,4.64210526 C12.9047619,4.64210526 12.3333333,4.64210526 12.047619,4.64210526 C10.4285714,4.64210526 8.61904762,5.30526316 8.61904762,7.48421053 C8.61904762,9.18947368 9.76190476,9.56842105 10.4285714,9.56842105 C11.7619048,9.56842105 12.3333333,8.71578947 12.4285714,8.71578947 L12.3333333,9.47368421 L14.047619,9.47368421 L14.8095238,4.26315789 C14.8095238,2.08421053 12.9047619,1.98947368 12.1428571,1.98947368 L9.66666667,3.88421053 Z M13.5714286,6.06315789 C13.5714286,6.34736842 12.4285714,7.86315789 11.2857143,7.86315789 C10.7142857,7.86315789 10.5238095,7.38947368 10.5238095,7.10526316 C10.5238095,6.63157895 10.8095238,5.96842105 12.2380952,5.96842105 C12.5238095,6.06315789 13.5714286,6.06315789 13.5714286,6.06315789 Z" id="Shape" fill-rule="nonzero"></path>
                                <path d="M14.5238095,9.28421053 C14.5238095,9.28421053 15.0952381,9.47368421 16.7142857,9.47368421 C17.1904762,9.47368421 19.5714286,9.56842105 19.5714286,7.01052632 C19.5714286,4.64210526 17.2857143,5.11578947 17.2857143,4.16842105 C17.2857143,3.69473684 17.6666667,3.50526316 18.3333333,3.50526316 C18.6190476,3.50526316 19.6666667,3.6 19.6666667,3.6 L19.952381,1.89473684 C19.952381,1.89473684 19.2857143,1.70526316 18.1428571,1.70526316 C16.7142857,1.70526316 16.2380952,2.27368421 16.2380952,4.16842105 C16.2380952,6.34736842 17.6666667,6.15789474 17.6666667,7.01052632 C17.6666667,7.57894737 17,7.67368421 16.5238095,7.67368421" id="Path"></path>
                                <path d="M54.2380952,2.84210526 C54.2380952,2.84210526 53.4761905,1.89473684 52.4285714,1.89473684 C50.7142857,1.89473684 50.1428571,3.97894737 50.1428571,6.44210526 C50.1428571,7.95789474 49.952381,9.56842105 51.5714286,9.56842105 C52.7142857,9.56842105 53.3809524,8.81052632 53.3809524,8.81052632 L53.2857143,9.47368421 L55.1904762,9.47368421 L56.6190476,0.378947368 L54.2380952,2.84210526 Z M54.1428571,5.30526316 C54.1428571,6.34736842 53.2857143,7.67368421 52.2380952,7.67368421 C51.5714286,7.67368421 51.1904762,7.10526316 51.1904762,6.15789474 C51.1904762,4.64210526 51.8571429,3.69473684 52.7142857,3.69473684 C53.3809524,3.69473684 54.1428571,4.16842105 54.1428571,5.30526316 Z" id="Shape" fill-rule="nonzero"></path>
                                <polygon id="Path" points="1.85714286 9.37894737 3 2.55789474 3.19047619 9.37894737 4.52380952 9.37894737 7 2.55789474 5.95238095 9.37894737 7.95238095 9.37894737 9.47619048 0.284210526 7.0952381 0.284210526 4.42857143 5.87368421 4.33333333 0.284210526 3.28571429 0.284210526 0.0476190476 9.37894737"></polygon>
                                <path d="M29.3809524,9.37894737 L31.3809524,9.37894737 C31.952381,6.25263158 32.047619,3.69473684 33.3809524,4.16842105 C33.5714286,2.93684211 33.8571429,2.46315789 34.047619,1.98947368 C34.047619,1.98947368 33.952381,1.98947368 33.6666667,1.98947368 C32.8095238,1.98947368 32.1428571,3.12631579 32.1428571,3.12631579 L32.3333333,2.08421053" id="Path"></path>
                                <path d="M40.6190476,3.88421053 C40.6190476,3.88421053 41.4761905,3.50526316 42.7142857,3.50526316 C43.3809524,3.50526316 43.952381,3.6 43.952381,4.16842105 C43.952381,4.54736842 43.8571429,4.64210526 43.8571429,4.64210526 C43.8571429,4.64210526 43.2857143,4.64210526 43,4.64210526 C41.3809524,4.64210526 39.5714286,5.30526316 39.5714286,7.48421053 C39.5714286,9.18947368 40.7142857,9.56842105 41.3809524,9.56842105 C42.7142857,9.56842105 43.2857143,8.71578947 43.3809524,8.71578947 L43.2857143,9.47368421 L45,9.47368421 L45.7619048,4.26315789 C45.7619048,2.08421053 43.8571429,1.98947368 43.0952381,1.98947368 L40.6190476,3.88421053 Z M44.5238095,6.06315789 C44.5238095,6.34736842 43.3809524,7.86315789 42.2380952,7.86315789 C41.6666667,7.86315789 41.4761905,7.38947368 41.4761905,7.10526316 C41.4761905,6.63157895 41.7619048,5.96842105 43.1904762,5.96842105 C43.5714286,6.06315789 44.5238095,6.06315789 44.5238095,6.06315789 Z" id="Shape" fill-rule="nonzero"></path>
                                <path d="M45.3809524,9.37894737 L47.3809524,9.37894737 C47.952381,6.25263158 48.047619,3.69473684 49.3809524,4.16842105 C49.5714286,2.93684211 49.8571429,2.46315789 50.047619,1.98947368 C50.047619,1.98947368 49.952381,1.98947368 49.6666667,1.98947368 C48.8095238,1.98947368 48.1428571,3.12631579 48.1428571,3.12631579 L48.3333333,2.08421053" id="Path"></path>
                            </g>
                        </g>
                    </g>
                    <rect id="Rectangle-Copy-2" fill-rule="nonzero" x="0" y="0" width="306" height="75" rx="3"></rect>
                </g>
            </g>
        </g>
    </g>
</svg>