<svg xmlns="http://www.w3.org/2000/svg" width="10" height="10" viewBox="0 0 10 10">
    <path fill="#F3F3F3" fill-rule="evenodd" d="M5.884 5L10 .884 9.116 0 5 4.116.884 0 0 .884 4.116 5 0 9.116.884 10 5 5.884 9.116 10 10 9.116z"/>
</svg>
