<?xml version="1.0" encoding="UTF-8"?>
<svg width="12px" height="12px" viewBox="0 0 12 12" version="1.1" xmlns="http://www.w3.org/2000/svg" xmlns:xlink="http://www.w3.org/1999/xlink">
    <!-- Generator: sketchtool 52.6 (67491) - http://www.bohemiancoding.com/sketch -->
    <title>8EB7C881-B4D8-4161-B57D-07A4E03ACF1E</title>
    <desc>Created with sketchtool.</desc>
    <g id="Admin-Panel" stroke="none" stroke-width="1" fill="none" fill-rule="evenodd">
        <g id="3.-Referral-Management-backend" transform="translate(-1306.000000, -504.000000)" fill="#61768D" fill-rule="nonzero">
            <g id="Group-15" transform="translate(274.000000, 476.000000)">
                <g id="Group-22" transform="translate(1026.000000, 22.000000)">
                    <path d="M17.6061429,16.9235789 L14.7008571,13.9549474 C15.4478571,13.0825263 15.8571429,11.9848421 15.8571429,10.8421053 C15.8571429,8.17221053 13.6461429,6 10.9285714,6 C8.211,6 6,8.17221053 6,10.8421053 C6,13.512 8.211,15.6842105 10.9285714,15.6842105 C11.9487857,15.6842105 12.921,15.3818947 13.7522143,14.808 L16.6795714,17.7991579 C16.8019286,17.924 16.9665,17.9928421 17.1428571,17.9928421 C17.3097857,17.9928421 17.4681429,17.9303158 17.5883571,17.8166316 C17.8437857,17.5751579 17.8519286,17.1747368 17.6061429,16.9235789 Z M10.9285714,7.26315789 C12.9372857,7.26315789 14.5714286,8.86863158 14.5714286,10.8421053 C14.5714286,12.8155789 12.9372857,14.4210526 10.9285714,14.4210526 C8.91985714,14.4210526 7.28571429,12.8155789 7.28571429,10.8421053 C7.28571429,8.86863158 8.91985714,7.26315789 10.9285714,7.26315789 Z" id="Shape"></path>
                </g>
            </g>
        </g>
    </g>
</svg>