<svg xmlns="http://www.w3.org/2000/svg" width="18" height="18" viewBox="0 0 18 18">
    <path fill="#F3F3F3" fill-rule="evenodd" d="M9 .25a8.75 8.75 0 1 0 0 17.5A8.75 8.75 0 0 0 9 .25zM5.25 15.488v-1.25a2.006 2.006 0 0 1 1.875-2.113h3.75a2.006 2.006 0 0 1 1.875 2.119v1.25a7.438 7.438 0 0 1-7.5 0v-.006zm8.75-.913v-.381a3.25 3.25 0 0 0-3.125-3.319h-3.75A3.25 3.25 0 0 0 4 14.194v.387a7.5 7.5 0 1 1 10 0v-.006zm-5-11.2a3.125 3.125 0 1 0 0 6.25 3.125 3.125 0 0 0 0-6.25zm0 5a1.875 1.875 0 1 1 0-3.75 1.875 1.875 0 0 1 0 3.75z"/>
</svg>
