<svg xmlns="http://www.w3.org/2000/svg" width="14" height="14" viewBox="0 0 14 14">
    <g fill="none" fill-rule="evenodd">
        <circle cx="7" cy="7" r="7" fill="#FB4B53"/>
        <path fill="#171717" d="M6.44 3h1.125v5.5H6.44V3zM7 11.5A.75.75 0 1 1 7 10a.75.75 0 0 1 0 1.5z"/>
    </g>
</svg>
