<svg xmlns="http://www.w3.org/2000/svg" width="79" height="80" viewBox="0 0 79 80">
    <defs>
        <linearGradient id="a" x1="99.659%" x2=".341%" y1="0%" y2="100%">
            <stop offset="0%" stop-color="#408BFC"/>
            <stop offset="100%" stop-color="#20D5D2" stop-opacity=".4"/>
        </linearGradient>
    </defs>
    <path fill="url(#a)" fill-rule="nonzero" d="M12.921 27.665c.01.307.054.603.075.91.031.434.06.87.109 1.301.054.444.129.88.2 1.319.073.423.14.849.23 1.264.096.431.215.855.33 1.278.112.408.215.818.344 1.218.137.415.297.82.452 1.228.147.39.286.782.451 1.164.176.403.374.79.568 1.18.183.368.354.74.55 1.099.216.39.459.759.694 1.138.209.338.402.684.627 1.009.27.397.57.772.862 1.153.217.284.42.581.648.855.42.508.874.988 1.331 1.463.227.237.46.472.697.702.488.472.986.937 1.507 1.37.245.204.509.382.759.576.415.32.823.645 1.257.939.289.196.59.366.882.55.42.265.836.534 1.275.774.312.175.643.322.963.482.438.22.87.442 1.318.635.341.15.69.271 1.035.403.452.175.9.35 1.363.5.358.117.727.21 1.094.31.464.127.932.258 1.404.361.38.083.761.142 1.143.207.48.085.96.165 1.445.222.395.046.79.07 1.187.098.33.026.656.072.989.082V77.42H14.764V65.445a.928.928 0 0 0-.93-.929H1.862V27.665h11.06zm26.72-25.807c13.716 0 24.875 11.161 24.875 24.877 0 6.64-2.588 12.888-7.288 17.59-4.699 4.7-10.947 7.288-17.587 7.288-13.718 0-24.877-11.159-24.877-24.878 0-13.716 11.159-24.877 24.877-24.877zM12.903 76.106l-9.729-9.732h9.73v9.732zm.274 2.9c.173.173.41.271.658.271H39.64a.928.928 0 0 0 .93-.929V53.425a26.498 26.498 0 0 0 17.282-7.16l19.84 19.838 1.313-1.313-19.84-19.838c4.64-4.97 7.21-11.39 7.21-18.217C66.377 11.995 54.383 0 39.642 0c-14.43 0-26.196 11.497-26.689 25.806H.932a.929.929 0 0 0-.932.93v38.71c0 .247.098.482.274.657l12.903 12.903z"/>
</svg>
