<svg xmlns="http://www.w3.org/2000/svg" width="18" height="18" viewBox="0 0 18 18">
    <path fill="#F3F3F3" fill-rule="evenodd" d="M17.025 0H.975A.99.99 0 0 0 0 .975v16.05A.99.99 0 0 0 .975 18H9.6v-6.975H7.275v-2.7H9.6V6.3c0-2.325 1.425-3.6 3.525-3.6.975 0 1.875.075 2.1.075V5.25H13.8c-1.125 0-1.35.525-1.35 1.35v1.725h2.7l-.375 2.7H12.45V18h4.575a.99.99 0 0 0 .975-.975V.975A.99.99 0 0 0 17.025 0z"/>
</svg>
