<svg xmlns="http://www.w3.org/2000/svg" width="18" height="18" viewBox="0 0 18 18">
    <g fill="none" fill-rule="evenodd">
        <circle cx="9" cy="9" r="8.75" fill="#198038"/>
        <path fill="#FFF" d="M7.75 12.438L4.625 9.312l.994-.937 2.131 2.094 4.631-4.594.994.988z"/>
    </g>
</svg>
