<svg xmlns="http://www.w3.org/2000/svg" width="13" height="14" viewBox="0 0 13 14">
    <path fill="#F3F3F3" fill-rule="evenodd" d="M2.5 4.5a2 2 0 1 1 0-4 2 2 0 0 1 0 4zm0-3a1 1 0 1 0 0 2 1 1 0 0 0 0-2zm0 12a2 2 0 1 1 0-4 2 2 0 0 1 0 4zm0-3a1 1 0 1 0 0 2 1 1 0 0 0 0-2zm4-8.5H13v1H6.5V2zm0 9.015H13v1H6.5v-1zM11 9a2 2 0 1 1 0-4 2 2 0 0 1 0 4zm0-3a1 1 0 1 0 0 2 1 1 0 0 0 0-2zM1 6.49h6.5v1H1v-1z"/>
</svg>
