<svg xmlns="http://www.w3.org/2000/svg" width="20" height="18" viewBox="0 0 20 18">
    <defs>
        <linearGradient id="a" x1="100%" x2="0%" y1="4.772%" y2="95.228%">
            <stop offset="0%" stop-color="#408BFC"/>
            <stop offset="100%" stop-color="#20D5D2" stop-opacity=".402"/>
        </linearGradient>
    </defs>
    <path fill="none" fill-rule="evenodd" stroke="url(#a)" d="M9 .38L6.489 5.468l-5.615.816 4.063 3.96-.959 5.592L9 13.196l5.022 2.64-.96-5.592 4.064-3.96-5.615-.816z" transform="translate(1 1)"/>
</svg>
