<svg xmlns="http://www.w3.org/2000/svg" width="22" height="24" viewBox="0 0 22 24">
    <g fill="none" fill-rule="nonzero">
        <path d="M-2 0h24v24H-2z"/>
        <path fill="#BEBEBE" d="M21.029 20.512l-2.63-7.079h1.57c.619 0 1.124-.496 1.133-1.115 0-.28-.114-.55-.316-.748a1.095 1.095 0 0 0-.764-.31H17.57l-.393-1.102h2.793a1.119 1.119 0 0 0 1.128-1.076 1.09 1.09 0 0 0-.33-.786 1.143 1.143 0 0 0-.803-.324h-3.627l-1.964-5.29a4.768 4.768 0 0 0-1.41-1.949 3.332 3.332 0 0 0-2.216-.73 3.427 3.427 0 0 0-2.228.73A4.812 4.812 0 0 0 7.105 2.68L5.048 8.018H1.443a1.08 1.08 0 0 0-1.09 1.063c0 .61.506 1.105 1.13 1.105H4.22l-.421 1.072H1.345a1.079 1.079 0 0 0-1.09 1.067c0 .605.498 1.095 1.114 1.097h1.575L.269 20.51A3.63 3.63 0 0 0 0 21.765c.027.604.296 1.173.747 1.587a2.72 2.72 0 0 0 1.786.644 2.4 2.4 0 0 0 2.454-1.74L6.02 19.23h9.525l1.036 3.098a2.417 2.417 0 0 0 2.454 1.653c.413.01.82-.093 1.178-.293.311-.227.587-.494.819-.798.202-.34.306-.73.3-1.125a7.261 7.261 0 0 0-.304-1.236v-.017zM7.547 14.516l3.18-9.483 3.24 9.483h-6.42z"/>
    </g>
</svg>
