<svg xmlns="http://www.w3.org/2000/svg" width="20" height="24" viewBox="0 0 20 24">
    <g fill="none" fill-rule="nonzero">
        <path d="M-3 0h24v24H-3z"/>
        <path fill="#BEBEBE" d="M19.636 12.033C19.61 5.423 14.321.063 7.767 0v3.057c4.303-.002 7.981 3.123 8.71 7.398h-4.244c.164.5.25 1.02.256 1.545a4.858 4.858 0 0 1-.256 1.545h4.244c-.719 4.282-4.403 7.411-8.71 7.398V24c3.149 0 6.167-1.26 8.394-3.504a12.015 12.015 0 0 0 3.475-8.464zm-7.913 2.573a4.69 4.69 0 0 1-6.507 1.447C3.022 14.64 2.379 11.703 3.78 9.49a4.69 4.69 0 0 1 6.507-1.448 5.14 5.14 0 0 1 1.436 1.448h3.351c-1.24-3.606-4.878-5.782-8.61-5.15C2.733 4.976 0 8.234 0 12.049s2.733 7.073 6.464 7.706c3.732.633 7.37-1.542 8.61-5.149l-3.351.001z"/>
    </g>
</svg>
