<svg xmlns="http://www.w3.org/2000/svg" width="24" height="23" viewBox="0 0 24 23">
    <g fill="none" fill-rule="evenodd">
        <path fill-rule="nonzero" d="M0 0h24v24H0z"/>
        <path fill="#BEBEBE" d="M12.315 22.857c1.544.009 3.073-.29 4.5-.88 1.936-.789 3.555-1.992 4.821-3.641a11.182 11.182 0 0 0 2.275-5.485c.278-2.192-.102-4.27-1.037-6.253-.679-1.44-1.655-2.672-2.862-3.726-1.63-1.422-3.531-2.3-5.665-2.686A11.573 11.573 0 0 0 9.61.312a11.777 11.777 0 0 0-4.703 2.256c-.29.23-.32.411-.105.715.142.202.306.389.47.574.35.391.505.398.915.078a9.445 9.445 0 0 1 2.746-1.497c1.88-.647 3.794-.763 5.741-.292 2.182.526 3.987 1.64 5.377 3.365 1.984 2.462 2.544 5.265 1.791 8.291-.6 2.412-2.034 4.297-4.135 5.654-1.752 1.13-3.691 1.634-5.8 1.561a9.787 9.787 0 0 1-5.512-1.881c-.696-.5-.692-.504-1.28.132l-.042.045c-.48.517-.463.753.1 1.166 2.12 1.557 4.492 2.371 7.142 2.377v.001zm-.727-7.295c-.112-.007-.137-.015-.152-.008-.045.023-.09.05-.135.076-.537.3-1.101.41-1.712.249-.23-.06-.291-.153-.155-.366.5-.784.674-1.654.63-2.562-.053-1.134-.41-2.149-1.294-2.935a4.85 4.85 0 0 0-3.295-1.264c-.529-.003-1.06.032-1.59.051-.222.008-.306-.08-.24-.299.085-.296.165-.594.24-.891.046-.179.146-.247.334-.248.842-.005 1.685-.016 2.527-.036.811-.02 1.557-.248 2.208-.74.55-.414.848-.948.805-1.64-.005-.085-.042-.197-.103-.237-.04-.027-.167.032-.229.083-.519.428-1.108.723-1.778.757a36.34 36.34 0 0 1-2.711.014c-.602-.014-1.201-.104-1.803-.137-.41-.023-.69.158-.797.51-.491 1.6-.974 3.2-1.45 4.805-.067.222-.24.472.02.682.25.201.483.014.696-.084 1.45-.669 2.923-.72 4.429-.206 1.716.585 2.17 2.168 1.467 3.603-.155.318-.248.325-.559.14-.541-.324-1.072-.673-1.638-.949-1.242-.6-2.539-.845-3.902-.445-.738.217-1.455.877-1.398 1.845.033.556.309.951.7 1.286.518.446 1.128.707 1.808.851 2.066.44 4.027.272 5.849-.87a.891.891 0 0 1 .436-.11c.395-.01.79.025 1.184.011.57-.017 1.04-.26 1.429-.666.063-.066.103-.153.18-.27zm-5.22.259c-.269.114-.53.257-.81.339-1.087.322-2.17.31-3.238-.1a1.222 1.222 0 0 1-.302-.157c-.281-.215-.522-.46-.423-.855.092-.358.402-.437.713-.509.69-.16 1.35.005 1.984.237.622.226 1.22.523 1.825.792.083.037.156.095.232.142l.019.11z"/>
    </g>
</svg>
