<svg xmlns="http://www.w3.org/2000/svg" width="24" height="24" viewBox="0 0 24 24">
    <g fill="none" fill-rule="nonzero">
        <path d="M0 0h24v24H0z"/>
        <path fill="#BEBEBE" d="M21.779 4.7l1.93-1.914c.455-.452.36-1.278-.21-1.843-.57-.567-1.405-.66-1.86-.207l-3.62 3.59-.124.124-3.155 3.127a5.475 5.475 0 0 0-7.044.54 5.36 5.36 0 0 0-.545 6.984l-2.409 2.39a9.417 9.417 0 0 1-1.427-2.754c-.808-2.446-.59-5.126.72-7.335 2.045-3.446 5.703-4.944 9.17-4.505a1.285 1.285 0 0 0 1.46-1.184 1.57 1.57 0 0 0-1.41-1.65C9.774-.292 6.173.845 3.514 3.482c-4.406 4.367-4.664 11.296-.792 16.013L.51 21.685c-.435.432-.327 1.243.244 1.808.57.566 1.387.675 1.823.243l2.378-2.358h.001l1.72-1.705.003-.005 2.788-2.763a5.472 5.472 0 0 0 5.907-1.172 5.358 5.358 0 0 0 1.182-5.858L19.72 6.74c2.318 3.492 1.858 8.325-1.333 11.488a9.468 9.468 0 0 1-7.36 2.736 1.174 1.174 0 0 0-1.236 1.066l-.034.384a1.246 1.246 0 0 0 1.19 1.357c3.503.188 6.92-1.12 9.403-3.597 4.319-4.283 4.818-10.879 1.429-15.476V4.7zm-8.406 9.046a2.617 2.617 0 0 1-3.673 0 2.563 2.563 0 0 1 0-3.642 2.616 2.616 0 0 1 3.673 0 2.563 2.563 0 0 1 0 3.642z"/>
    </g>
</svg>
