<svg xmlns="http://www.w3.org/2000/svg" width="23" height="24" viewBox="0 0 23 24">
    <g fill="none" fill-rule="nonzero">
        <path d="M-1 0h24v24H-1z"/>
        <path fill="#BEBEBE" d="M21.355 15.382c-.902-.05-.4-1.486-.801-3.123-.477-1.813.225-3.073 1.153-3.022.436.067.848.24 1.203.503a7.44 7.44 0 0 0-.852-2.242c-.828-1.386-2.632-3.4-4.889-4.987V17.7a1.525 1.525 0 1 1-2.908.655 5.93 5.93 0 0 1-7.612-1.146 5.998 5.998 0 0 1-.114-7.734 5.93 5.93 0 0 1 7.576-1.372V2.21a1.49 1.49 0 0 1 .552-1.184c-2.934-1.36-6.218-1.637-9.026.857C.924 6.087-1.432 11.957.924 17.8c.05.126.1.252.151.352.069-.142.163-.268.276-.378 1.228-1.258 2.582 1.31 5.466 2.797 1.829.931 2.882 2.165 3.283 3.324 2.682.327 5.44-.1 7.646-1.386 2.883-1.661 4.563-4.684 5.164-7.756-.432.379-.98.6-1.555.63zm-11.305.1c1.454.832 3.209.504 3.535-1.36.174-1.082.075-2.77-.877-3.299-3.16-1.813-5.817 2.846-2.658 4.66zm1.48-12.04c.676-.024 1.302.782 1.327 1.16.025.378-.576.226-1.228.453-.727.251-1.254.025-1.278-.352-.025-.379.476-1.235 1.178-1.26z"/>
    </g>
</svg>
