<svg xmlns="http://www.w3.org/2000/svg" width="14" height="24" viewBox="0 0 14 24">
    <g fill="none" fill-rule="evenodd">
        <path fill-rule="nonzero" d="M-5 0h24v24H-5z"/>
        <path fill="#BEBEBE" d="M13.732 12v-.002L7 15.781.268 12 7 8.19 13.732 12zM7 17.047c2.332-1.32 4.665-2.637 7-3.952-2.079 3.248-4.66 7.261-7 10.904-2.34-3.644-4.921-7.656-7-10.904 2.335 1.315 4.668 2.632 7 3.952zM7 6.958v.001l-7 3.907L7 0l7 10.865-7-3.907z"/>
    </g>
</svg>
