<svg xmlns="http://www.w3.org/2000/svg" width="24" height="14" viewBox="0 0 24 14">
    <g fill="none" fill-rule="evenodd">
        <path fill-rule="nonzero" d="M0-6h24v24H0z"/>
        <path fill="#BEBEBE" d="M24 1.432c0-.48-.029-.957-.089-1.432H4.53c-.094.471-.14.951-.14 1.432 0 4.112 3.413 7.46 7.607 7.46 3.262-.004 6.159-2.04 7.209-5.065h-2.309c-1.07 2.107-3.416 3.285-5.786 2.904-2.37-.383-4.208-2.236-4.533-4.569h15.265c-.38 4.996-4.647 8.946-9.838 8.946-5.44 0-9.866-4.34-9.866-9.674 0-.479.036-.958.108-1.432H.09C.029.478 0 .956 0 1.434 0 7.921 5.384 13.2 12 13.2S24 7.92 24 1.432z"/>
    </g>
</svg>
