<svg xmlns="http://www.w3.org/2000/svg" width="24" height="23" viewBox="0 0 24 23">
    <defs>
        <linearGradient id="a" x1="87.685%" x2="12.315%" y1="0%" y2="100%">
            <stop offset="0%" stop-color="#FFF" stop-opacity="0"/>
            <stop offset="100%" stop-color="#FFF"/>
        </linearGradient>
        <linearGradient id="b" x1="87.564%" x2="12.436%" y1="0%" y2="100%">
            <stop offset="0%" stop-color="#FFF" stop-opacity="0"/>
            <stop offset="100%" stop-color="#FFF"/>
        </linearGradient>
    </defs>
    <g fill="none" fill-rule="nonzero">
        <path d="M0-1h24v24H0z"/>
        <path fill="url(#a)" d="M14.43 1v5.423l4.708-2.707z" transform="translate(0 -1)"/>
        <path fill="url(#a)" d="M19.138 3.716v5.423l4.708-2.716z" opacity=".9" transform="translate(0 -1)"/>
        <path fill="url(#a)" d="M14.43 6.423v5.424l4.708-2.708zM19.138 9.139v5.423l4.708-2.715z" opacity=".8" transform="translate(0 -1)"/>
        <path fill="url(#a)" d="M14.43 11.847v5.423l4.708-2.708z" opacity=".8" transform="translate(0 -1)"/>
        <path fill="url(#a)" d="M19.138 14.562v5.424l4.708-2.716z" transform="translate(0 -1)"/>
        <path fill="url(#a)" d="M2.26 6.24v5.424L6.967 8.95z" opacity=".4" transform="translate(0 -1)"/>
        <path fill="url(#b)" d="M8.2 8.257v5.423l4.7-2.708z" opacity=".2" transform="translate(0 -1)"/>
        <path fill="url(#a)" d="M4.708 11.687v5.424l4.709-2.716z" opacity=".3" transform="translate(0 -1)"/>
        <path fill="url(#b)" d="M7.812 15.78v5.423l4.7-2.716z" opacity=".9" transform="translate(0 -1)"/>
        <path fill="url(#b)" d="M14.391 18.115v5.423l4.701-2.715z" opacity=".7" transform="translate(0 -1)"/>
        <path fill="url(#b)" d="M8.983 5.58v5.423l4.701-2.708z" opacity=".9" transform="translate(0 -1)"/>
        <path fill="url(#a)" d="M14.43 1v5.423L9.72 3.716z" opacity=".8" transform="translate(0 -1)"/>
        <path fill="url(#a)" d="M8.983 3.305v5.423L4.275 6.013zM13.692 5.99v5.423L8.983 8.698z" opacity=".6" transform="translate(0 -1)"/>
        <path fill="url(#a)" d="M8.177 8.257v5.423l-4.708-2.708z" opacity=".95" transform="translate(0 -1)"/>
        <path fill="url(#b)" d="M14.43 11.847v5.423l-4.701-2.708z" opacity=".6" transform="translate(0 -1)"/>
        <path fill="url(#a)" d="M4.708 13.11v5.423L0 15.817z" opacity=".55" transform="translate(0 -1)"/>
        <path fill="url(#a)" d="M23.846 6.423v5.424l-4.708-2.708z" transform="translate(0 -1)"/>
        <path fill="url(#a)" d="M19.138 9.139v5.423l-4.708-2.715z" opacity=".95" transform="translate(0 -1)"/>
        <path fill="url(#a)" d="M23.846 11.847v5.423l-4.708-2.708z" opacity=".9" transform="translate(0 -1)"/>
        <path fill="url(#a)" d="M19.138 14.562v5.424L14.43 17.27z" opacity=".7" transform="translate(0 -1)"/>
        <path fill="url(#a)" d="M13.387 16.822v5.423L8.68 19.537z" opacity=".4" transform="translate(0 -1)"/>
        <path fill="url(#a)" d="M19.138 3.716v5.423L14.43 6.423z" transform="translate(0 -1)"/>
    </g>
</svg>
