<svg xmlns="http://www.w3.org/2000/svg" width="21" height="24" viewBox="0 0 21 24">
    <g fill="none" fill-rule="evenodd" transform="translate(-1)">
        <path d="M0 0h23.111v24H0z"/>
        <path stroke="#BEBEBE" d="M11.526 1l9.527 5.385v10.771l-9.527 5.386L2 17.156V6.386z"/>
        <circle cx="11.068" cy="16.125" r="1.833" stroke="#BEBEBE"/>
        <path stroke="#BEBEBE" stroke-linecap="round" d="M11.068 14.292V8.428 5.792M11.068 8.428h2.172M11.068 5.792h3.329"/>
    </g>
</svg>
