<svg xmlns="http://www.w3.org/2000/svg" width="14" height="24" viewBox="0 0 14 24">
    <g fill="none" fill-rule="nonzero">
        <path d="M-6 0h24v24H-6z"/>
        <path fill="#BEBEBE" d="M5.548 10.322L5.722 24l7.11-6.022-7.284-7.656zm.347-.516l6.936 7.399.26-11.012-7.196 3.613zm-.433-.602l7.543-3.527L5.462 0v9.204zM4.942.259L0 5.849l1.214 11.957 3.987 5.592-.26-23.14z"/>
    </g>
</svg>
