<svg xmlns="http://www.w3.org/2000/svg" width="21" height="24" viewBox="0 0 21 24">
    <g fill="none" fill-rule="evenodd">
        <path fill-rule="nonzero" d="M-1 0h24v24H-1z"/>
        <path fill="#BEBEBE" d="M2.14 16.821L.378 24h19.313L21 18.643H9.417l1.272-5.224 2.14-.857 1.02-4.124-2.114.856L14.013 0H6.319L3.198 12.643l-2.166.87L0 17.652l2.14-.831z"/>
    </g>
</svg>
