<svg xmlns="http://www.w3.org/2000/svg" width="24" height="22" viewBox="0 0 24 22">
    <g fill="none" fill-rule="evenodd">
        <path fill-rule="nonzero" d="M0-1h24v24H0z"/>
        <path fill="#BEBEBE" d="M21.614 19.24a1.31 1.31 0 0 0-.163.634c0 .716.571 1.296 1.275 1.296.703 0 1.274-.58 1.274-1.296 0-.716-.57-1.296-1.274-1.296-.312 0-.613.116-.845.325l-2.09-1.862 1.632-5.269a.857.857 0 0 0 .878-.864.857.857 0 0 0-.906-.862l-1.392-4.569a.867.867 0 0 0 .386-.725.857.857 0 0 0-.849-.864.84.84 0 0 0-.584.238l-3.873-2.847a.873.873 0 0 0 .102-.415.857.857 0 0 0-.848-.864.854.854 0 0 0-.836.703H8.8A.854.854 0 0 0 7.965 0a.857.857 0 0 0-.85.864c0 .152.04.302.116.434L3.333 4.113a.839.839 0 0 0-.572-.225.857.857 0 0 0-.85.864c0 .33.181.615.448.761L.96 10.052a.857.857 0 0 0-.96.857.858.858 0 0 0 .933.862l1.421 4.538a.866.866 0 0 0-.443.758c0 .477.381.864.85.864a.838.838 0 0 0 .563-.218l3.868 2.881a.873.873 0 0 0-.076.36c0 .478.38.865.849.865.414 0 .76-.302.834-.702h4.702c.073.405.424.7.836.702.469 0 .848-.387.848-.864a.873.873 0 0 0-.078-.363l4.355-3.267 2.152 1.915zm-7.205.853a.847.847 0 0 0-.393.06l-2.233-3.158a.867.867 0 0 0 .205-.43l3.764-.548a.866.866 0 0 0 .279.423l-1.622 3.653zm.428.164a.851.851 0 0 0-.027-.02l1.607-3.617a.84.84 0 0 0 .822-.322l1.82.792-4.223 3.166.001.001zm-1.161.154a.867.867 0 0 0-.147.273H8.771a.867.867 0 0 0-.146-.273l2.247-3.177c.18.063.376.063.555 0l2.248 3.177zm7.34-8.76l-1.338 4.316-.29-4.24a.863.863 0 0 0 .577-.818.863.863 0 0 0-.584-.82l.295-4.228 1.315 4.322a.867.867 0 0 0-.39.726c0 .315.167.591.415.742zm-2.46-1.393a.871.871 0 0 0-.023 1.28l-1.767 3.392a.838.838 0 0 0-.338-.013l-1.564-3.33a.868.868 0 0 0 .321-.678.868.868 0 0 0-.312-.669l1.519-3.345a.84.84 0 0 0 .436-.024l1.728 3.387zm.408 1.502l.34 4.968-1.899-.827a.868.868 0 0 0-.265-.767l1.765-3.387c.02.005.04.01.06.013zm-.006-1.7a.833.833 0 0 0-.022.004l-1.749-3.426a.87.87 0 0 0 .213-.758l1.46-.61c.102.14.245.246.41.302l-.312 4.488zm-4.482 1.702l1.564 3.33a.866.866 0 0 0-.304.49l-3.783.55a.867.867 0 0 0-.158-.277l2.316-4.112c.119.033.244.039.365.018v.001zm.011-1.703a.84.84 0 0 0-.398.023L11.756 5.9a.866.866 0 0 0 .179-.274l3.79.55c.03.205.131.391.286.528l-1.523 3.356zm-.744 1.469l-2.297 4.08a.836.836 0 0 0-.513-.025l-2.367-4.064a.868.868 0 0 0 .249-.61.867.867 0 0 0-.232-.592l2.408-4.175a.84.84 0 0 0 .4-.02l2.335 4.186a.87.87 0 0 0 .017 1.22zm-12.41.092a.867.867 0 0 0 .367-.71.867.867 0 0 0-.344-.695L2.69 5.88l.33 4.182a.86.86 0 0 0-.683.848.86.86 0 0 0 .67.844l-.32 4.194-1.355-4.327zm4.24 3.301l-1.8-3.388a.868.868 0 0 0 .262-.624c0-.241-.1-.472-.276-.637l1.832-3.37a.841.841 0 0 0 .319-.007l1.518 3.344a.87.87 0 0 0 .02 1.356l-1.495 3.338a.838.838 0 0 0-.38-.012zm.354 1.691l1.57 3.621a.85.85 0 0 0-.035.025l-3.9-2.904a.876.876 0 0 0 .042-.398l1.472-.642c.202.256.534.371.851.297v.001zm-1.029-.69l-1.45.632a.855.855 0 0 0-.36-.286l.342-4.473 1.76 3.312a.868.868 0 0 0-.292.815zm1.67-.326a.867.867 0 0 0-.244-.449l1.516-3.383c.12.018.244.01.36-.025l2.362 4.055a.866.866 0 0 0-.215.34l-3.78-.538zm-.022.433l3.767.537c.028.164.1.311.206.43l-2.235 3.157a.835.835 0 0 0-.385-.06l-1.596-3.681a.866.866 0 0 0 .243-.382v-.001zm-1.64-10.17c-.07.32.045.653.297.863L3.44 9.97l-.35-4.42a.855.855 0 0 0 .364-.296l1.45.606h.002zm1.036-.649a.838.838 0 0 0-.842.264L3.606 4.85a.888.888 0 0 0-.04-.374l3.876-2.8-1.5 3.535zm.635.953l3.787-.54a.87.87 0 0 0 .24.333l-2.38 4.13a.836.836 0 0 0-.412-.027L6.289 6.703a.867.867 0 0 0 .287-.54h.001zm-.262-.744l1.569-3.694a.845.845 0 0 0 .425-.071L10.48 4.76a.868.868 0 0 0-.174.434l-3.78.539a.866.866 0 0 0-.21-.315zm10.17-.23l-1.604-3.526 3.849 2.83a.877.877 0 0 0-.032.378l-1.483.62a.842.842 0 0 0-.73-.303zm-.715.556l-3.774-.548a.868.868 0 0 0-.175-.436l2.171-3.107c.14.063.295.087.447.067l1.648 3.615a.865.865 0 0 0-.317.41v-.001zm-2.112-4.36l-2.175 3.113a.835.835 0 0 0-.666 0L8.642 1.385c.057-.076.1-.16.13-.25h4.756c.03.09.074.175.131.25z"/>
    </g>
</svg>
