<svg xmlns="http://www.w3.org/2000/svg" width="24" height="21" viewBox="0 0 24 21">
    <g fill="none" fill-rule="evenodd">
        <path fill-rule="nonzero" d="M0-2h24v24H0z"/>
        <path fill="#BEBEBE" d="M10.211.138C9.867.196 9.53.28 9.191.36c-3.65.942-6.66 3.972-7.5 7.598a10.02 10.02 0 0 0-.175 3.943c.022.152.039.327-.08.451-.548.712-1.038 1.473-1.396 2.296-.166.399.211.846.627.845a.701.701 0 0 0 .578-.386c.233-.44.466-.884.737-1.303.251.542.452 1.108.768 1.617 1.447 2.516 3.99 4.412 6.867 5.035 1.983.469 4.095.317 6.013-.353a10.691 10.691 0 0 0 4.338-2.912c2.052-2.25 3.016-5.429 2.51-8.415-.01-.109-.045-.233.039-.324.455-.618.894-1.252 1.235-1.941.109-.226.272-.452.245-.715a.637.637 0 0 0-.68-.556c-.246-.011-.457.152-.557.364-.234.447-.474.891-.742 1.319-.289-.695-.577-1.395-1.006-2.02a10.516 10.516 0 0 0-4.825-4.07c-.995-.447-2.08-.674-3.16-.8-.938-.047-1.889-.067-2.817.105h.001zM7.634 2.331C9.631 1.29 12.022.972 14.216 1.53c3.293.759 6.06 3.437 6.814 6.692-1.966 2.291-4.819 3.684-7.748 4.36-.57.118-1.138.25-1.717.31-.8.077-1.597.215-2.403.175.735-.743 1.508-1.451 2.236-2.204-.273-.327-.595-.612-.899-.909-.818.77-1.604 1.574-2.41 2.354-.47.482-.998.907-1.456 1.4.118.16.26.3.403.437 1.06 1.034 2.111 2.077 3.175 3.108.282.27.546.558.85.806.303-.297.624-.578.899-.903-.715-.675-1.409-1.368-2.112-2.053-.24-.24-.492-.464-.698-.732 2.352-.066 4.698-.491 6.903-1.309a14.627 14.627 0 0 0 4.63-2.69c.2-.18.393-.37.607-.538.176 2.684-.965 5.416-3 7.21a9.374 9.374 0 0 1-5.097 2.328c-1.358.188-2.75.033-4.054-.367-2.232-.707-4.173-2.273-5.297-4.298-.34-.64-.651-1.3-.816-2.008-.022-.102-.034-.223.05-.305 1.392-1.582 3.22-2.765 5.2-3.506.947-.318 1.894-.65 2.879-.827 1.22-.241 2.459-.418 3.704-.436-.696.786-1.52 1.452-2.244 2.212.238.349.583.61.88.91.109-.082.212-.17.312-.263 1.178-1.175 2.388-2.32 3.565-3.496-1.105-1.134-2.264-2.219-3.386-3.338-.347-.327-.675-.675-1.03-.996-.315.289-.619.59-.911.901.913.947 1.904 1.82 2.817 2.768-2.701.13-5.42.614-7.888 1.737-1.33.597-2.6 1.348-3.686 2.317-.184.177-.38.343-.584.497-.073-1.298.165-2.603.631-3.816.81-2.007 2.365-3.709 4.3-4.726z"/>
    </g>
</svg>
