<svg xmlns="http://www.w3.org/2000/svg" width="22" height="22" viewBox="0 0 22 22">
    <g fill="none" fill-rule="evenodd">
        <path fill-rule="nonzero" d="M-1-1h24v24H-1z"/>
        <path fill="#BEBEBE" d="M11 0C4.925 0 0 4.925 0 11s4.925 11 11 11h11V11c0-6.075-4.925-11-11-11zm6.6 17.6h-6.5c-3.65 0-6.682-2.918-6.7-6.566A6.608 6.608 0 0 1 11.034 4.4c3.648.018 6.566 3.052 6.566 6.7v6.5z"/>
    </g>
</svg>
