<svg xmlns="http://www.w3.org/2000/svg" width="24" height="22" viewBox="0 0 24 22">
    <g fill="none" fill-rule="evenodd">
        <path fill-rule="nonzero" d="M0-1h24v24H0z"/>
        <path fill="#BEBEBE" d="M1.143 10.313l-.009-1.895 10.519 6.174a.798.798 0 0 0 .807 0L23.6 8.109a.812.812 0 0 0 .005-1.396l-11.14-6.6a.799.799 0 0 0-.818.001L.28 6.916a.577.577 0 0 0-.272.591.703.703 0 0 0-.007.107v2.7c0 .705.374 1.357.98 1.71l10.673 6.22c.25.144.56.143.81-.004l10.334-6.114V14.2l-10.743 6.413L.86 14.03a.568.568 0 0 0-.781.207.578.578 0 0 0 .206.787l11.368 6.683c.25.148.563.147.813-.003l11.081-6.615a.81.81 0 0 0 .393-.695V11.53a.806.806 0 0 0-1.209-.699l-10.675 6.317-10.502-6.12a.828.828 0 0 1-.41-.715zM12.059 13.5L1.697 7.406l10.362-6.201 10.466 6.2-10.466 6.093z"/>
    </g>
</svg>
