<svg xmlns="http://www.w3.org/2000/svg" width="20" height="24" viewBox="0 0 20 24">
    <g fill="none" fill-rule="nonzero">
        <path d="M-2 0h24v24H-2z"/>
        <path fill="#BEBEBE" d="M19.7 6.196c-.94-.667-1.946-1.38-2.93-2.085-.022-.016-.043-.033-.07-.05a1.318 1.318 0 0 0-.386-.22l-.012-.005C13.671 3.19 11.04 2.54 8.41 1.89L1.37.152l-.184-.05C.973.043.728-.023.467.01a.495.495 0 0 0-.2.077L.201.142a.812.812 0 0 0-.185.297L0 .484v.253l.012.039c1.482 4.217 3.004 8.496 4.473 12.636 1.13 3.188 2.306 6.49 3.451 9.732.071.22.272.365.523.386h.054a.611.611 0 0 0 .543-.304l4.306-6.368c1.048-1.55 2.098-3.104 3.147-4.653l1.289-1.908a436.034 436.034 0 0 1 2.158-3.181l.038-.054v-.067c.016-.193.021-.59-.294-.8zm-5.045 2.32c-1.012.535-2.043 1.087-3.082 1.633l1.816-1.974c.756-.828 1.544-1.683 2.316-2.52l.016-.017c.065-.088.147-.17.234-.259.059-.06.125-.12.185-.193.402.283.81.569 1.201.85.282.203.57.408.865.611a302.595 302.595 0 0 0-3.55 1.87zm-2.597-.264c-.778.854-1.583 1.73-2.382 2.597-1.55-1.908-3.105-3.812-4.664-5.712L2.919 2.584l-.005-.006c-.158-.181-.31-.38-.462-.567-.098-.127-.201-.248-.305-.375.63.164 1.267.32 1.892.468.55.133 1.12.27 1.68.414l9.464 2.332c-1.049 1.136-2.104 2.288-3.125 3.402zM9.322 18.998c.06-.579.126-1.174.18-1.759.05-.47.098-.948.147-1.406.076-.734.158-1.494.224-2.239l.015-.131c.054-.476.108-.965.141-1.457.064-.035.13-.067.197-.094.081-.037.162-.07.243-.12 1.256-.67 2.514-1.335 3.773-1.996 1.257-.661 2.545-1.346 3.823-2.024A1100.55 1100.55 0 0 0 14.6 12.89c-.973 1.437-1.973 2.92-2.968 4.382-.39.585-.799 1.18-1.185 1.753-.435.64-.881 1.295-1.315 1.953.054-.662.119-1.33.19-1.98zM1.746 2.937c-.07-.199-.148-.402-.213-.595C3 4.139 4.479 5.947 5.92 7.7c.745.91 1.49 1.815 2.234 2.73.147.17.294.353.435.53.185.225.37.463.57.689-.065.567-.12 1.14-.18 1.691-.037.386-.074.773-.118 1.165v.005c-.016.247-.05.496-.076.739l-.125 1.097-.006.038c-.098 1.114-.218 2.239-.332 3.33-.048.452-.091.916-.14 1.38-.028-.083-.06-.167-.088-.244-.083-.225-.162-.45-.239-.678l-.582-1.638L1.745 2.937z"/>
    </g>
</svg>
