<svg xmlns="http://www.w3.org/2000/svg" width="22" height="22" viewBox="0 0 22 22">
    <g fill="none" fill-rule="evenodd">
        <path fill-rule="nonzero" d="M-1-1h24v24H-1z"/>
        <path fill="#BEBEBE" d="M.16 5.45c.092.77.226 1.537.401 2.301.027.123.064.23.11.33a4.983 4.983 0 0 0 9.317-.738c.121-.434.18-.898.198-1.488A6.606 6.606 0 0 1 13.672.159a28.67 28.67 0 0 0-2.217-.154 22.243 22.243 0 0 0-6.888.937A22.039 22.039 0 0 0 0 2.9c.002.835.055 1.683.16 2.55zm18.274 9.415a22.162 22.162 0 0 0 3.48-10.136c.055-.627.084-1.236.086-1.83a21.558 21.558 0 0 0-1.492-.775c-.839-.393-1.527-.673-2.208-.888a4.915 4.915 0 0 0-2.681-.091 4.97 4.97 0 0 0-3.72 5.74c.268 1.437 1.03 2.55 2.281 3.345.087.055.174.109.263.16a6.526 6.526 0 0 1 2.362 2.489c.534.973.81 2.068.802 3.179.289-.389.565-.787.827-1.193zm-3.34 4.04a.64.64 0 0 0 .129-.178l.048-.095c.1-.195.141-.277.19-.378.571-1.193.68-2.404.31-3.637a4.972 4.972 0 0 0-5.391-3.527 5.064 5.064 0 0 0-1.877.627 6.63 6.63 0 0 1-6.637-.014 22.38 22.38 0 0 0 8.016 9.594c.45.302.89.576 1.12.703a22.574 22.574 0 0 0 4.092-3.095z"/>
    </g>
</svg>
