<svg xmlns="http://www.w3.org/2000/svg" width="16" height="23" viewBox="0 0 16 23">
    <g fill="none" fill-rule="nonzero">
        <path fill="#BEBEBE" d="M3.313 0L0 1.472v3.32l8.818 4.284L0 13.443v3.273l12.739 6.134L16 21.38v-10.26l-3.261 1.485v6.975l-8.652-4.207 8.652-4.467L16 9.44l-.015-3.278z"/>
        <path d="M-4-1h24v24H-4z"/>
    </g>
</svg>
