<svg xmlns="http://www.w3.org/2000/svg" width="24" height="24" viewBox="0 0 24 24">
    <g fill="none" fill-rule="nonzero">
        <path d="M0 0h24v24H0z"/>
        <path fill="#BEBEBE" d="M11.451 24c-.294-.03-.589-.058-.883-.093A11.869 11.869 0 0 1 6.07 22.42c-.02-.01-.04-.027-.08-.054l7.211-5.39.726.706c.402.395.81.785 1.205 1.186.098.098.17.097.284.038a7.799 7.799 0 0 0 2.976-2.607l.117-.172c.033.04.065.07.091.105.837 1.115 1.673 2.23 2.513 3.342.073.096.064.153-.012.24-1.947 2.21-4.364 3.572-7.277 4.038-.367.058-.74.08-1.11.12-.048.007-.097.019-.145.029H11.45zM12.51 0h-.003c.204.02.408.043.614.062C14.82.22 16.465.74 17.945 1.59c.021.012.04.028.076.053L10.692 6.9c-.097-.092-.19-.179-.283-.27-.515-.501-1.032-1.002-1.544-1.508-.082-.081-.144-.09-.245-.038a7.797 7.797 0 0 0-3.021 2.643l-.111.163-2.692-3.585c.27-.288.522-.575.794-.84C5.361 1.738 7.462.639 9.9.197c.467-.085.947-.113 1.422-.169.053-.006.107-.018.159-.028h1.029zM1.592 6.037h.002l5.45 7.143-1.1 1.128c-.274.28-.546.564-.825.84-.079.079-.082.139-.034.234a7.782 7.782 0 0 0 2.641 3.021l.112.077c.007.005.01.016.029.053L4.31 21.202C2.183 19.37.802 17.114.248 14.376c-.594-2.93-.112-5.699 1.344-8.339zm15.463 4.767l1.002-1.04c.28-.29.554-.582.841-.866.09-.088.087-.154.035-.26a7.786 7.786 0 0 0-2.673-3.052c-.04-.027-.08-.056-.148-.105l3.577-2.684c2.026 1.736 3.37 3.873 3.988 6.453.771 3.22.084 6.405-1.251 8.648l-5.37-7.094z"/>
    </g>
</svg>
